{
	"Id": "5353e3e185f7e9feb063d38647196cad111a8c32c9d88132a52f89ca7db57d1b",
	"Created": "2021-11-06T09:32:33.772332754Z",
	"Path": "/bin/sh",
	"Args": [
		"-c",
		"while sleep 1000; do :; done"
	],
	"State": {
		"Status": "running",
		"Running": true,
		"Paused": false,
		"Restarting": false,
		"OOMKilled": false,
		"Dead": false,
		"Pid": 33459,
		"ExitCode": 0,
		"Error": "",
		"StartedAt": "2021-11-06T09:32:34.097735912Z",
		"FinishedAt": "0001-01-01T00:00:00Z"
	},
	"Image": "sha256:9de868b72ac1ad0521aabab6884191848e78fcf9cb883ab8d10078f16d354338",
	"ResolvConfPath": "/var/lib/docker/containers/5353e3e185f7e9feb063d38647196cad111a8c32c9d88132a52f89ca7db57d1b/resolv.conf",
	"HostnamePath": "/var/lib/docker/containers/5353e3e185f7e9feb063d38647196cad111a8c32c9d88132a52f89ca7db57d1b/hostname",
	"HostsPath": "/var/lib/docker/containers/5353e3e185f7e9feb063d38647196cad111a8c32c9d88132a52f89ca7db57d1b/hosts",
	"LogPath": "/var/lib/docker/containers/5353e3e185f7e9feb063d38647196cad111a8c32c9d88132a52f89ca7db57d1b/5353e3e185f7e9feb063d38647196cad111a8c32c9d88132a52f89ca7db57d1b-json.log",
	"Name": "/flask-poems_flask_1",
	"RestartCount": 0,
	"Driver": "overlay2",
	"Platform": "linux",
	"MountLabel": "",
	"ProcessLabel": "",
	"AppArmorProfile": "docker-default",
	"ExecIDs": [
		"b6211eee1d2d384fb7248fc111c23971e4b72cbe920d3a02153354ae5f04ad5e",
		"09a4ee4fb2ceaa05f953cdae408e1dc452be90f6f94c5db759c54488e363e1e2",
		"70a4d45f26605bd7bef8fad1c655482ee5e2e2f04571cf032ff9119b51665ff8",
		"e89f37dbb0cf45da3bb4f35fb2dfe6c51e1a6a40026403a70efdec41f148de11"
	],
	"HostConfig": {
		"Binds": [
			"/home/dima/Projects/Python/flask-poems:/workspace:cached",
			"/home/dima/Projects/Python/flask-poems:/poems:rw"
		],
		"ContainerIDFile": "",
		"LogConfig": {
			"Type": "json-file",
			"Config": {}
		},
		"NetworkMode": "flask-poems_db_network",
		"PortBindings": {
			"8080/tcp": [
				{
					"HostIp": "",
					"HostPort": "8080"
				}
			]
		},
		"RestartPolicy": {
			"Name": "",
			"MaximumRetryCount": 0
		},
		"AutoRemove": false,
		"VolumeDriver": "",
		"VolumesFrom": [],
		"CapAdd": null,
		"CapDrop": null,
		"CgroupnsMode": "private",
		"Dns": null,
		"DnsOptions": null,
		"DnsSearch": null,
		"ExtraHosts": null,
		"GroupAdd": null,
		"IpcMode": "private",
		"Cgroup": "",
		"Links": null,
		"OomScoreAdj": 0,
		"PidMode": "",
		"Privileged": false,
		"PublishAllPorts": false,
		"ReadonlyRootfs": false,
		"SecurityOpt": null,
		"UTSMode": "",
		"UsernsMode": "",
		"ShmSize": 67108864,
		"Runtime": "runc",
		"ConsoleSize": [
			0,
			0
		],
		"Isolation": "",
		"CpuShares": 0,
		"Memory": 0,
		"NanoCpus": 0,
		"CgroupParent": "",
		"BlkioWeight": 0,
		"BlkioWeightDevice": null,
		"BlkioDeviceReadBps": null,
		"BlkioDeviceWriteBps": null,
		"BlkioDeviceReadIOps": null,
		"BlkioDeviceWriteIOps": null,
		"CpuPeriod": 0,
		"CpuQuota": 0,
		"CpuRealtimePeriod": 0,
		"CpuRealtimeRuntime": 0,
		"CpusetCpus": "",
		"CpusetMems": "",
		"Devices": null,
		"DeviceCgroupRules": null,
		"DeviceRequests": null,
		"KernelMemory": 0,
		"KernelMemoryTCP": 0,
		"MemoryReservation": 0,
		"MemorySwap": 0,
		"MemorySwappiness": null,
		"OomKillDisable": null,
		"PidsLimit": null,
		"Ulimits": null,
		"CpuCount": 0,
		"CpuPercent": 0,
		"IOMaximumIOps": 0,
		"IOMaximumBandwidth": 0,
		"MaskedPaths": [
			"/proc/asound",
			"/proc/acpi",
			"/proc/kcore",
			"/proc/keys",
			"/proc/latency_stats",
			"/proc/timer_list",
			"/proc/timer_stats",
			"/proc/sched_debug",
			"/proc/scsi",
			"/sys/firmware"
		],
		"ReadonlyPaths": [
			"/proc/bus",
			"/proc/fs",
			"/proc/irq",
			"/proc/sys",
			"/proc/sysrq-trigger"
		],
		"Init": true
	},
	"GraphDriver": {
		"Data": {
			"LowerDir": "/var/lib/docker/overlay2/e0f8941ebbe4bc82df0f1bdb457ce2451fc316cc3f3ee0547ecd8dadf36f44b7-init/diff:/var/lib/docker/overlay2/a0b6034d033c4a9450239225095d1b636b510e852ba93e54cea32e3af09b403c/diff:/var/lib/docker/overlay2/827ad88735269d9b9e5298a8b1a7ea8f23b493016acc0635f30ed35c7be3a3ad/diff:/var/lib/docker/overlay2/186a58b1783f4e5c12a163dd9b4d0122326dab9604fa87ab5d3a42f14da5b895/diff:/var/lib/docker/overlay2/bfc995ee17904092e6661df6527aa9b7f3b9759f8a215167430be7c29d7b9bd2/diff:/var/lib/docker/overlay2/33088739b706696baf59b317716598c558fd1709b88fd6cd665a7974d35f350e/diff:/var/lib/docker/overlay2/d98281300248509944bfc0758b6e3d222c531e2cd259b1d5b379257efa96d5ee/diff:/var/lib/docker/overlay2/202bd3287a4cb128877c94c42233be4b40bb9d2504d4a615587257656f10b023/diff:/var/lib/docker/overlay2/e8181230f342667874dae228123b5bf596649f01760e249081c973fb50e8c399/diff:/var/lib/docker/overlay2/401bd1c1cacd0ae57f17ccea7f41c1f1f1b0a270c7f6d0cfe281aa3daf6e0eb3/diff:/var/lib/docker/overlay2/db118675ba08a5cc7fb48b3cfc48c649960d193c84b65fc1531dac5a3e558e20/diff:/var/lib/docker/overlay2/fa1edd36ad076c2968041ccc24a2ee55ddcd499c6f516dde77c3a64c759ab52a/diff",
			"MergedDir": "/var/lib/docker/overlay2/e0f8941ebbe4bc82df0f1bdb457ce2451fc316cc3f3ee0547ecd8dadf36f44b7/merged",
			"UpperDir": "/var/lib/docker/overlay2/e0f8941ebbe4bc82df0f1bdb457ce2451fc316cc3f3ee0547ecd8dadf36f44b7/diff",
			"WorkDir": "/var/lib/docker/overlay2/e0f8941ebbe4bc82df0f1bdb457ce2451fc316cc3f3ee0547ecd8dadf36f44b7/work"
		},
		"Name": "overlay2"
	},
	"Mounts": [
		{
			"Type": "bind",
			"Source": "/home/dima/Projects/Python/flask-poems",
			"Destination": "/workspace",
			"Mode": "cached",
			"RW": true,
			"Propagation": "rprivate"
		},
		{
			"Type": "bind",
			"Source": "/home/dima/Projects/Python/flask-poems",
			"Destination": "/poems",
			"Mode": "rw",
			"RW": true,
			"Propagation": "rprivate"
		}
	],
	"Config": {
		"Hostname": "5353e3e185f7",
		"Domainname": "",
		"User": "",
		"AttachStdin": false,
		"AttachStdout": false,
		"AttachStderr": false,
		"ExposedPorts": {
			"8080/tcp": {}
		},
		"Tty": false,
		"OpenStdin": false,
		"StdinOnce": false,
		"Env": [
			"DATABASE_URI=postgresql://user:password@postgres/poems",
			"FLASK_APP=app.app:create_app",
			"PATH=/usr/local/bin:/usr/local/sbin:/usr/local/bin:/usr/sbin:/usr/bin:/sbin:/bin",
			"LANG=C.UTF-8",
			"GPG_KEY=A035C8C19219BA821ECEA86B64E628F8D684696D",
			"PYTHON_VERSION=3.10.0",
			"PYTHON_PIP_VERSION=21.2.4",
			"PYTHON_SETUPTOOLS_VERSION=57.5.0",
			"PYTHON_GET_PIP_URL=https://github.com/pypa/get-pip/raw/d781367b97acf0ece7e9e304bf281e99b618bf10/public/get-pip.py",
			"PYTHON_GET_PIP_SHA256=01249aa3e58ffb3e1686b7141b4e9aac4d398ef4ac3012ed9dff8dd9f685ffe0"
		],
		"Cmd": [
			"/bin/sh",
			"-c",
			"while sleep 1000; do :; done"
		],
		"Image": "flask-poems_flask",
		"Volumes": {
			"/poems": {},
			"/workspace": {}
		},
		"WorkingDir": "/poems",
		"Entrypoint": null,
		"OnBuild": null,
		"Labels": {
			"com.docker.compose.config-hash": "753ccba18feed30f1da0c5bb5108dd4730927784e3fe304f096c4005a1e5f12f",
			"com.docker.compose.container-number": "1",
			"com.docker.compose.oneoff": "False",
			"com.docker.compose.project": "flask-poems",
			"com.docker.compose.project.config_files": "/home/dima/Projects/Python/flask-poems/docker-compose.yml,/home/dima/Projects/Python/flask-poems/.devcontainer/docker-compose.yml",
			"com.docker.compose.project.working_dir": "/home/dima/Projects/Python/flask-poems",
			"com.docker.compose.service": "flask",
			"com.docker.compose.version": "1.29.2"
		}
	},
	"NetworkSettings": {
		"Bridge": "",
		"SandboxID": "82ad502fa51fdfc0997ddfe27410287fb1cd243e9b9f378b21d90f8e31cadf3e",
		"HairpinMode": false,
		"LinkLocalIPv6Address": "",
		"LinkLocalIPv6PrefixLen": 0,
		"Ports": {
			"8080/tcp": [
				{
					"HostIp": "0.0.0.0",
					"HostPort": "8080"
				},
				{
					"HostIp": "::",
					"HostPort": "8080"
				}
			]
		},
		"SandboxKey": "/var/run/docker/netns/82ad502fa51f",
		"SecondaryIPAddresses": null,
		"SecondaryIPv6Addresses": null,
		"EndpointID": "",
		"Gateway": "",
		"GlobalIPv6Address": "",
		"GlobalIPv6PrefixLen": 0,
		"IPAddress": "",
		"IPPrefixLen": 0,
		"IPv6Gateway": "",
		"MacAddress": "",
		"Networks": {
			"flask-poems_db_network": {
				"IPAMConfig": null,
				"Links": null,
				"Aliases": [
					"flask",
					"5353e3e185f7"
				],
				"NetworkID": "32430e14536238e4b5dabeda2c7e6c753f4006a629563b0138bf4693a26e8ff6",
				"EndpointID": "ebad8b40278fef2d3c7dc5c3eb78e9b4d22795e3a4cf92de5a086fec82f7b33c",
				"Gateway": "172.20.0.1",
				"IPAddress": "172.20.0.2",
				"IPPrefixLen": 16,
				"IPv6Gateway": "",
				"GlobalIPv6Address": "",
				"GlobalIPv6PrefixLen": 0,
				"MacAddress": "02:42:ac:14:00:02",
				"DriverOpts": null
			}
		}
	},
	"Ports": [
		{
			"IP": "0.0.0.0",
			"PrivatePort": 8080,
			"PublicPort": 8080,
			"Type": "tcp"
		},
		{
			"IP": "::",
			"PrivatePort": 8080,
			"PublicPort": 8080,
			"Type": "tcp"
		}
	]
}